…
    ## [1] 11

``` r
# Hay `r nrow(millas)` filas y `r ncol(millas)` columnas en el dataset `millas`. 
```

``` r
# Otra manera de ver el numero de filas y de columnas es imprimiendo el objeto en la consola. Al inicio nos indicara el tipo de objeto que es y sus dimensiones en terminos de `filas x columnas`. Algo parecido ocurrirra si utilizamos `str()`. Si usamos `glimpse()` nos indicara esta informacion como numero de obervaciones y numero de variables.
millas
```

    ## # A tibble: 234 x 11
    ##    fabricante modelo     cilindrada  anio cilindros transmision traccion ciudad
    ##    <chr>      <chr>           <dbl> <int>     <int> <chr>       <chr>     <int>
    ##  1 audi       a4                1.8  1999         4 auto(l5)    d            18
    ##  2 audi       a4                1.8  1999         4 manual(m5)  d            21
    ##  3 audi       a4                2    2008         4 manual(m6)  d            20
    ##  4 audi       a4                2    2008         4 auto(av)    d            21
    ##  5 audi       a4                2.8  1999         6 auto(l5)    d            16
    ##  6 audi       a4                2.8  1999         6 manual(m5)  d            18
    ##  7 audi       a4                3.1  2008         6 auto(av)    d            18
    ##  8 audi       a4 quattro        1.8  1999         4 manual(m5)  4            18
    ##  9 audi       a4 quattro        1.8  1999         4 auto(l5)    4            16
    ## 10 audi       a4 quattro        2    2008         4 manual(m6)  4            20
    ## # ... with 224 more rows, and 3 more variables: autopista <int>,
    ## #   combustible <chr>, clase <chr>
…
